<?xml version="1.0" encoding="UTF-8"?>
<svg xmlns="http://www.w3.org/2000/svg" width="20" height="20" viewBox="0 0 20 20" fill="#CCCCCC">
  <title>
    trash
  </title>
  <path d="M17 2h-3.5l-1-1h-5l-1 1H3v2h14zM4 17a2 2 0 0 0 2 2h8a2 2 0 0 0 2-2V5H4z"/>
</svg>
